\beamer@endinputifotherversion {3.36pt}
\headcommand {\slideentry {0}{0}{1}{1/1}{}{0}}
\headcommand {\beamer@framepages {1}{1}}
\headcommand {\sectionentry {1}{Introduction}{2}{Introduction}{0}}
\headcommand {\beamer@sectionpages {1}{1}}
\headcommand {\beamer@subsectionpages {1}{1}}
\headcommand {\slideentry {1}{0}{1}{2/2}{}{0}}
\headcommand {\beamer@framepages {2}{2}}
\headcommand {\sectionentry {2}{Notation}{3}{Notation}{0}}
\headcommand {\beamer@sectionpages {2}{2}}
\headcommand {\beamer@subsectionpages {2}{2}}
\headcommand {\slideentry {2}{0}{1}{3/6}{}{0}}
\headcommand {\beamer@framepages {3}{6}}
\headcommand {\sectionentry {3}{Definitions}{7}{Definitions}{0}}
\headcommand {\beamer@sectionpages {3}{6}}
\headcommand {\beamer@subsectionpages {3}{6}}
\headcommand {\slideentry {3}{0}{1}{7/10}{}{0}}
\headcommand {\beamer@framepages {7}{10}}
\headcommand {\sectionentry {4}{Berge Hypergraph example}{11}{Berge Hypergraph example}{0}}
\headcommand {\beamer@sectionpages {7}{10}}
\headcommand {\beamer@subsectionpages {7}{10}}
\headcommand {\slideentry {4}{0}{1}{11/13}{}{0}}
\headcommand {\beamer@framepages {11}{13}}
\headcommand {\sectionentry {5}{Identity Example}{14}{Identity Example}{0}}
\headcommand {\beamer@sectionpages {11}{13}}
\headcommand {\beamer@subsectionpages {11}{13}}
\headcommand {\slideentry {5}{0}{1}{14/16}{}{0}}
\headcommand {\beamer@framepages {14}{16}}
\headcommand {\slideentry {5}{0}{2}{17/18}{}{0}}
\headcommand {\beamer@framepages {17}{18}}
\headcommand {\sectionentry {6}{General Results}{19}{General Results}{0}}
\headcommand {\beamer@sectionpages {14}{18}}
\headcommand {\beamer@subsectionpages {14}{18}}
\headcommand {\slideentry {6}{0}{1}{19/21}{}{0}}
\headcommand {\beamer@framepages {19}{21}}
\headcommand {\sectionentry {7}{Downsets}{22}{Downsets}{0}}
\headcommand {\beamer@sectionpages {19}{21}}
\headcommand {\beamer@subsectionpages {19}{21}}
\headcommand {\slideentry {7}{0}{1}{22/22}{}{0}}
\headcommand {\beamer@framepages {22}{22}}
\headcommand {\sectionentry {8}{Shifting Example}{23}{Shifting Example}{0}}
\headcommand {\beamer@sectionpages {22}{22}}
\headcommand {\beamer@subsectionpages {22}{22}}
\headcommand {\slideentry {8}{0}{1}{23/34}{}{0}}
\headcommand {\beamer@framepages {23}{34}}
\headcommand {\slideentry {8}{0}{2}{35/39}{}{0}}
\headcommand {\beamer@framepages {35}{39}}
\headcommand {\sectionentry {9}{$F$ is a tree}{40}{$F$ is a tree}{0}}
\headcommand {\beamer@sectionpages {23}{39}}
\headcommand {\beamer@subsectionpages {23}{39}}
\headcommand {\slideentry {9}{0}{1}{40/41}{}{0}}
\headcommand {\beamer@framepages {40}{41}}
\headcommand {\slideentry {9}{0}{2}{42/43}{}{0}}
\headcommand {\beamer@framepages {42}{43}}
\headcommand {\sectionentry {10}{Complete Bipartite}{44}{Complete Bipartite}{0}}
\headcommand {\beamer@sectionpages {40}{43}}
\headcommand {\beamer@subsectionpages {40}{43}}
\headcommand {\slideentry {10}{0}{1}{44/45}{}{0}}
\headcommand {\beamer@framepages {44}{45}}
\headcommand {\sectionentry {11}{Column sum restriction}{46}{Column sum restriction}{0}}
\headcommand {\beamer@sectionpages {44}{45}}
\headcommand {\beamer@subsectionpages {44}{45}}
\headcommand {\slideentry {11}{0}{1}{46/46}{}{0}}
\headcommand {\beamer@framepages {46}{46}}
\headcommand {\slideentry {11}{0}{2}{47/49}{}{0}}
\headcommand {\beamer@framepages {47}{49}}
\headcommand {\sectionentry {12}{$I_2\times I_t$}{50}{$I_2\times I_t$}{0}}
\headcommand {\beamer@sectionpages {46}{49}}
\headcommand {\beamer@subsectionpages {46}{49}}
\headcommand {\slideentry {12}{0}{1}{50/51}{}{0}}
\headcommand {\beamer@framepages {50}{51}}
\headcommand {\slideentry {12}{0}{2}{52/52}{}{0}}
\headcommand {\beamer@framepages {52}{52}}
\headcommand {\slideentry {12}{0}{3}{53/53}{}{0}}
\headcommand {\beamer@framepages {53}{53}}
\headcommand {\sectionentry {13}{I_3 X I_t}{54}{I_3 X I_t}{0}}
\headcommand {\beamer@sectionpages {50}{53}}
\headcommand {\beamer@subsectionpages {50}{53}}
\headcommand {\slideentry {13}{0}{1}{54/55}{}{0}}
\headcommand {\beamer@framepages {54}{55}}
\headcommand {\slideentry {13}{0}{2}{56/56}{}{0}}
\headcommand {\beamer@framepages {56}{56}}
\headcommand {\sectionentry {14}{General I_s X I_t}{57}{General I_s X I_t}{0}}
\headcommand {\beamer@sectionpages {54}{56}}
\headcommand {\beamer@subsectionpages {54}{56}}
\headcommand {\slideentry {14}{0}{1}{57/58}{}{0}}
\headcommand {\beamer@framepages {57}{58}}
\headcommand {\slideentry {14}{0}{2}{59/59}{}{0}}
\headcommand {\beamer@framepages {59}{59}}
\headcommand {\beamer@partpages {1}{59}}
\headcommand {\beamer@subsectionpages {57}{59}}
\headcommand {\beamer@sectionpages {57}{59}}
\headcommand {\beamer@documentpages {59}}
\headcommand {\def \inserttotalframenumber {23}}
