\relax 
\providecommand\hyper@newdestlabel[2]{}
\providecommand\HyperFirstAtBeginDocument{\AtBeginDocument}
\HyperFirstAtBeginDocument{\ifx\hyper@anchor\@undefined
\global\let\oldcontentsline\contentsline
\gdef\contentsline#1#2#3#4{\oldcontentsline{#1}{#2}{#3}}
\global\let\oldnewlabel\newlabel
\gdef\newlabel#1#2{\newlabelxx{#1}#2}
\gdef\newlabelxx#1#2#3#4#5#6{\oldnewlabel{#1}{{#2}{#3}}}
\AtEndDocument{\ifx\hyper@anchor\@undefined
\let\contentsline\oldcontentsline
\let\newlabel\oldnewlabel
\fi}
\fi}
\global\let\hyper@last\relax 
\gdef\HyperFirstAtBeginDocument#1{#1}
\providecommand\HyField@AuxAddToFields[1]{}
\providecommand\HyField@AuxAddToCoFields[2]{}
\@writefile{toc}{\beamer@endinputifotherversion {3.36pt}}
\@writefile{nav}{\beamer@endinputifotherversion {3.36pt}}
\@writefile{nav}{\headcommand {\slideentry {0}{0}{1}{1/1}{}{0}}}
\@writefile{nav}{\headcommand {\beamer@framepages {1}{1}}}
\@writefile{toc}{\beamer@sectionintoc {1}{Introduction}{2}{0}{1}}
\@writefile{nav}{\headcommand {\sectionentry {1}{Introduction}{2}{Introduction}{0}}}
\@writefile{nav}{\headcommand {\beamer@sectionpages {1}{1}}}
\@writefile{nav}{\headcommand {\beamer@subsectionpages {1}{1}}}
\@writefile{nav}{\headcommand {\slideentry {1}{0}{1}{2/2}{}{0}}}
\@writefile{nav}{\headcommand {\beamer@framepages {2}{2}}}
\@writefile{toc}{\beamer@sectionintoc {2}{Notation}{3}{0}{2}}
\@writefile{nav}{\headcommand {\sectionentry {2}{Notation}{3}{Notation}{0}}}
\@writefile{nav}{\headcommand {\beamer@sectionpages {2}{2}}}
\@writefile{nav}{\headcommand {\beamer@subsectionpages {2}{2}}}
\@writefile{nav}{\headcommand {\slideentry {2}{0}{1}{3/6}{}{0}}}
\@writefile{nav}{\headcommand {\beamer@framepages {3}{6}}}
\@writefile{toc}{\beamer@sectionintoc {3}{Definitions}{7}{0}{3}}
\@writefile{nav}{\headcommand {\sectionentry {3}{Definitions}{7}{Definitions}{0}}}
\@writefile{nav}{\headcommand {\beamer@sectionpages {3}{6}}}
\@writefile{nav}{\headcommand {\beamer@subsectionpages {3}{6}}}
\@writefile{nav}{\headcommand {\slideentry {3}{0}{1}{7/10}{}{0}}}
\@writefile{nav}{\headcommand {\beamer@framepages {7}{10}}}
\@writefile{toc}{\beamer@sectionintoc {4}{Berge Hypergraph example}{11}{0}{4}}
\@writefile{nav}{\headcommand {\sectionentry {4}{Berge Hypergraph example}{11}{Berge Hypergraph example}{0}}}
\@writefile{nav}{\headcommand {\beamer@sectionpages {7}{10}}}
\@writefile{nav}{\headcommand {\beamer@subsectionpages {7}{10}}}
\@writefile{nav}{\headcommand {\slideentry {4}{0}{1}{11/13}{}{0}}}
\@writefile{nav}{\headcommand {\beamer@framepages {11}{13}}}
\@writefile{toc}{\beamer@sectionintoc {5}{Identity Example}{14}{0}{5}}
\@writefile{nav}{\headcommand {\sectionentry {5}{Identity Example}{14}{Identity Example}{0}}}
\@writefile{nav}{\headcommand {\beamer@sectionpages {11}{13}}}
\@writefile{nav}{\headcommand {\beamer@subsectionpages {11}{13}}}
\@writefile{nav}{\headcommand {\slideentry {5}{0}{1}{14/16}{}{0}}}
\@writefile{nav}{\headcommand {\beamer@framepages {14}{16}}}
\@writefile{nav}{\headcommand {\slideentry {5}{0}{2}{17/18}{}{0}}}
\@writefile{nav}{\headcommand {\beamer@framepages {17}{18}}}
\@writefile{toc}{\beamer@sectionintoc {6}{General Results}{19}{0}{6}}
\@writefile{nav}{\headcommand {\sectionentry {6}{General Results}{19}{General Results}{0}}}
\@writefile{nav}{\headcommand {\beamer@sectionpages {14}{18}}}
\@writefile{nav}{\headcommand {\beamer@subsectionpages {14}{18}}}
\@writefile{nav}{\headcommand {\slideentry {6}{0}{1}{19/21}{}{0}}}
\@writefile{nav}{\headcommand {\beamer@framepages {19}{21}}}
\@writefile{toc}{\beamer@sectionintoc {7}{Downsets}{22}{0}{7}}
\@writefile{nav}{\headcommand {\sectionentry {7}{Downsets}{22}{Downsets}{0}}}
\@writefile{nav}{\headcommand {\beamer@sectionpages {19}{21}}}
\@writefile{nav}{\headcommand {\beamer@subsectionpages {19}{21}}}
\@writefile{nav}{\headcommand {\slideentry {7}{0}{1}{22/22}{}{0}}}
\@writefile{nav}{\headcommand {\beamer@framepages {22}{22}}}
\@writefile{toc}{\beamer@sectionintoc {8}{Shifting Example}{23}{0}{8}}
\@writefile{nav}{\headcommand {\sectionentry {8}{Shifting Example}{23}{Shifting Example}{0}}}
\@writefile{nav}{\headcommand {\beamer@sectionpages {22}{22}}}
\@writefile{nav}{\headcommand {\beamer@subsectionpages {22}{22}}}
\@writefile{nav}{\headcommand {\slideentry {8}{0}{1}{23/34}{}{0}}}
\@writefile{nav}{\headcommand {\beamer@framepages {23}{34}}}
\@writefile{nav}{\headcommand {\slideentry {8}{0}{2}{35/39}{}{0}}}
\@writefile{nav}{\headcommand {\beamer@framepages {35}{39}}}
\@writefile{toc}{\beamer@sectionintoc {9}{$F$ is a tree}{40}{0}{9}}
\@writefile{nav}{\headcommand {\sectionentry {9}{$F$ is a tree}{40}{$F$ is a tree}{0}}}
\@writefile{nav}{\headcommand {\beamer@sectionpages {23}{39}}}
\@writefile{nav}{\headcommand {\beamer@subsectionpages {23}{39}}}
\@writefile{nav}{\headcommand {\slideentry {9}{0}{1}{40/41}{}{0}}}
\@writefile{nav}{\headcommand {\beamer@framepages {40}{41}}}
\@writefile{nav}{\headcommand {\slideentry {9}{0}{2}{42/43}{}{0}}}
\@writefile{nav}{\headcommand {\beamer@framepages {42}{43}}}
\@writefile{toc}{\beamer@sectionintoc {10}{Complete Bipartite}{44}{0}{10}}
\@writefile{nav}{\headcommand {\sectionentry {10}{Complete Bipartite}{44}{Complete Bipartite}{0}}}
\@writefile{nav}{\headcommand {\beamer@sectionpages {40}{43}}}
\@writefile{nav}{\headcommand {\beamer@subsectionpages {40}{43}}}
\@writefile{nav}{\headcommand {\slideentry {10}{0}{1}{44/45}{}{0}}}
\@writefile{nav}{\headcommand {\beamer@framepages {44}{45}}}
\@writefile{toc}{\beamer@sectionintoc {11}{Column sum restriction}{46}{0}{11}}
\@writefile{nav}{\headcommand {\sectionentry {11}{Column sum restriction}{46}{Column sum restriction}{0}}}
\@writefile{nav}{\headcommand {\beamer@sectionpages {44}{45}}}
\@writefile{nav}{\headcommand {\beamer@subsectionpages {44}{45}}}
\@writefile{nav}{\headcommand {\slideentry {11}{0}{1}{46/46}{}{0}}}
\@writefile{nav}{\headcommand {\beamer@framepages {46}{46}}}
\@writefile{nav}{\headcommand {\slideentry {11}{0}{2}{47/49}{}{0}}}
\@writefile{nav}{\headcommand {\beamer@framepages {47}{49}}}
\@writefile{toc}{\beamer@sectionintoc {12}{$I_2\times I_t$}{50}{0}{12}}
\@writefile{nav}{\headcommand {\sectionentry {12}{$I_2\times I_t$}{50}{$I_2\times I_t$}{0}}}
\@writefile{nav}{\headcommand {\beamer@sectionpages {46}{49}}}
\@writefile{nav}{\headcommand {\beamer@subsectionpages {46}{49}}}
\@writefile{nav}{\headcommand {\slideentry {12}{0}{1}{50/51}{}{0}}}
\@writefile{nav}{\headcommand {\beamer@framepages {50}{51}}}
\@writefile{nav}{\headcommand {\slideentry {12}{0}{2}{52/52}{}{0}}}
\@writefile{nav}{\headcommand {\beamer@framepages {52}{52}}}
\@writefile{nav}{\headcommand {\slideentry {12}{0}{3}{53/53}{}{0}}}
\@writefile{nav}{\headcommand {\beamer@framepages {53}{53}}}
\@writefile{toc}{\beamer@sectionintoc {13}{I_3 X I_t}{54}{0}{13}}
\@writefile{nav}{\headcommand {\sectionentry {13}{I_3 X I_t}{54}{I_3 X I_t}{0}}}
\@writefile{nav}{\headcommand {\beamer@sectionpages {50}{53}}}
\@writefile{nav}{\headcommand {\beamer@subsectionpages {50}{53}}}
\newlabel{triangle}{{13.1}{54}{}{Doc-Start}{}}
\@writefile{snm}{\beamer@slide {triangle}{54}}
\@writefile{nav}{\headcommand {\slideentry {13}{0}{1}{54/55}{}{0}}}
\@writefile{nav}{\headcommand {\beamer@framepages {54}{55}}}
\@writefile{nav}{\headcommand {\slideentry {13}{0}{2}{56/56}{}{0}}}
\@writefile{nav}{\headcommand {\beamer@framepages {56}{56}}}
\@writefile{toc}{\beamer@sectionintoc {14}{General I_s X I_t}{57}{0}{14}}
\@writefile{nav}{\headcommand {\sectionentry {14}{General I_s X I_t}{57}{General I_s X I_t}{0}}}
\@writefile{nav}{\headcommand {\beamer@sectionpages {54}{56}}}
\@writefile{nav}{\headcommand {\beamer@subsectionpages {54}{56}}}
\@writefile{nav}{\headcommand {\slideentry {14}{0}{1}{57/58}{}{0}}}
\@writefile{nav}{\headcommand {\beamer@framepages {57}{58}}}
\@writefile{nav}{\headcommand {\slideentry {14}{0}{2}{59/59}{}{0}}}
\@writefile{nav}{\headcommand {\beamer@framepages {59}{59}}}
\@writefile{nav}{\headcommand {\beamer@partpages {1}{59}}}
\@writefile{nav}{\headcommand {\beamer@subsectionpages {57}{59}}}
\@writefile{nav}{\headcommand {\beamer@sectionpages {57}{59}}}
\@writefile{nav}{\headcommand {\beamer@documentpages {59}}}
\@writefile{nav}{\headcommand {\def \inserttotalframenumber {23}}}
